ISSS624 Geospatial Analytics - Take-home_Ex1
…
nigeria_data <- read_csv("data/aspatial/nigeria.csv")

Rows: 95008 Columns: 50
── Column specification ────────────────────────────────────────────────────────
Delimiter: ","
chr (27): #source, #status_id, #water_source_clean, #water_source_category, ...
dbl (19): #lat_deg, #lon_deg, #install_year, #distance_to_primary_road, #dis...
lgl  (4): is_urban, latest_record, lat_deg_original, lon_deg_original

ℹ Use `spec()` to retrieve the full column specification for this data.
ℹ Specify the column types or set `show_col_types = FALSE` to quiet this message.

nigeria_data[rowSums(is.na(nigeria_data))!=0,]

# A tibble: 95,008 × 50
   `#source`     #lat_…¹ #lon_…² #stat…³ #wate…⁴ #wate…⁵ #wate…⁶ #wate…⁷ #clea…⁸
   <chr>           <dbl>   <dbl> <chr>   <chr>   <chr>   <chr>   <chr>   <chr>  
 1 GRID3            5.81    7.92 Unknown <NA>    <NA>    Tapsta… Tapsta… Nigeria
 2 GRID3            7.98    5.12 Unknown <NA>    <NA>    Tapsta… Tapsta… Nigeria
 3 WaterAid         6.78    7.66 Yes     Boreho… Well    Hand P… Hand P… Nigeria
 4 WaterAid         6.96    7.78 Yes     Boreho… Well    Hand P… Hand P… Nigeria
 5 Living Water…    7.37    8.96 Yes     Boreho… Well    Hand P… Hand P… Nigeria
 6 Living Water…    7.16    9.04 Yes     Boreho… Well    Mechan… Mechan… Nigeria
 7 Living Water…    7.32    9.02 Yes     Boreho… Well    Mechan… Mechan… Nigeria
 8 GRID3            5.57    6.96 Unknown Boreho… Well    <NA>    <NA>    Nigeria
 9 GRID3            5.99    8.26 Unknown Boreho… Well    <NA>    <NA>    Nigeria
10 GRID3            9.01    3.92 Unknown Boreho… Well    <NA>    <NA>    Nigeria
# … with 94,998 more rows, 41 more variables: `#clean_adm1` <chr>,
#   `#clean_adm2` <chr>, `#install_year` <dbl>, `#management_clean` <chr>,
#   `#status_clean` <chr>, `#pay` <chr>, `#subjective_quality` <chr>,
#   `#country_id` <chr>, `#distance_to_primary_road` <dbl>,
#   `#distance_to_secondary_road` <dbl>, `#distance_to_tertiary_road` <dbl>,
#   `#distance_to_city` <dbl>, `#distance_to_town` <dbl>, rehab_priority <dbl>,
#   water_point_population <dbl>, local_population_1km <dbl>, …
…
